1 10
100 200
201 210
900 1000
10 10
10 1
607353 674858
981051 289736
346352 745225
196887 944750
286484 199462
344178 244940
538795 329891
469524 434636
54236 942016
468074 956154
219749 602802
871037 672973
573127 524964
54386 263437
391918 563805
715696 614996
648715 675351
369684 855185
589290 83180
350999 649716
76700 883144
306113 126925
518695 519765
37747 883525
480902 585958
496909 99120
587892 813322
802092 161663
328100 932279
930792 819662
310378 28555
75839 880169
300704 886301
153548 120925
535787 77238
240797 241314
691578 336424
387096 486583
998409 311774
465757 995798
629252 305748
694844 426842
210632 452140
968761 892763
215880 207468
723887 663539
683848 640824
442564 529884
910027 132371
112788 442706
40626 470190
981761 520442
498515 215892
846172 536399
887394 337918
4450 680580
598268 134797
933332 942543
792790 374134
275862 623166
705427 954658
751128 558554
466992 108216
848814 960851
43713 73319
368972 333186
134838 543515
356269 567640
270341 106209
124108 384781
942277 330448
908350 945882
289160 520433
105656 53681
78116 202190
149911 566646
432500 92589
615448 880851
404040 677412
753782 604578
835622 319839
140420 399387
225267 39689
602994 423144
344734 94317
575436 77183
192985 810496
523399 37084
156896 627728
604070 916327
179921 930089
123411 686082
393821 481373
828943 567656
249418 141643
22776 9531
806304 958306
449077 990951
772149 600590
170667 87471
904930 511882
376677 776060
652983 713138
20061 949462
333104 745461
578361 93681
142509 472353
169545 768242
667506 6808
737806 105099
618132 585528
134477 934059
309213 2568
90195 283775
226245 810553
52719 704728
641614 876866
170191 888006
371548 954206
20902 144305
539306 344052
292089 232333
440483 17846
855957 631779
174386 886158
806082 441445
69027 281573
703411 718708
557189 765457
971579 601369
351650 293201
635663 792905
770598 600969
631518 94909
388161 556448
16055 23154
574194 852926
871822 772738
300939 30304
746311 471535
119691 423214
340752 946129
869854 272392
505954 801389
602599 630979
117317 562735
454461 674062
69277 962487
590611 873276
36982 200850
512534 609796
355260 577786
968211 338246
279950 584834
672509 424036
256555 672238
423951 118636
964706 220197
848981 614134
239343 412700
245100 265992
557357 458948
355885 185009
160932 573828
415043 640502
546608 844929
742268 744060
998587 119586
755259 845473
854924 891310
285342 768080
495582 904715
150390 242754
230267 804942
266495 92851
738616 423977
183251 816776
724565 385717
606505 637277
983899 836094
352559 943110
845645 192806
671861 911719
132197 659548
347571 687687
116946 370315
769738 512821
757763 254141
720189 527762
126534 275215
794557 465151
859196 841206
609219 324807
512257 897899
244799 347688
66565 808267
337353 892877
253933 721455
774495 124650
95011 478274
847140 425697
805597 473703
642914 224588
422341 578864
779553 672468
28293 941433
829497 90849
630088 547782
21572 50298
13444 870344
815608 136498
535445 707158
52937 457239
166519 284942
930399 874738
992432 815487
54396 608317
359742 293637
