615423 176493
281567 963599
432015 919759
758054 86275
525766 102765
336017 68747
631007 53880
148412 574339
398899 395019
918276 95215
37411 709505
920653 36657
732031 905237
148707 2256
136959 365270
955447 602905
5996 526218
245968 7053
278468 890926
382121 863470
438472 429230
226563 578140
30229 755615
545355 675403
441685 365169
740735 631745
404077 835627
692450 426917
157524 65301
935042 825545
296237 382070
408071 119563
872537 23963
805075 396180
445829 870363
292740 419649
89098 743262
129362 889376
183331 663034
348597 288936
543823 29971
121395 584414
856655 572240
928729 49352
742950 561922
213231 760908
421921 547769
404179 606914
704576 576828
841661 910497
591824 672306
156233 54794
313111 954017
29355 523488
243539 528283
419685 144499
719110 549757
775706 258396
737343 627176
701890 34904
54380 111353
548563 986389
597041 488464
739927 967733
262559 455530
214452 468952
744806 349074
553831 24505
114428 706040
716652 552815
528722 798860
218349 768138
955597 99097
757344 571535
229263 945662
129234 552885
313764 963191
113573 820413
987013 697441
699631 122102
391691 875956
281077 303542
514980 28700
603427 980996
47667 58067
345167 909596
802640 982506
111760 244242
650714 801095
412406 465926
99885 826384
362827 232953
2582 757355
456541 130369
575248 540967
22173 638597
523475 121572
42606 575399
455379 671616
677536 456454
294010 516750
966731 962570
367570 594473
731314 946951
959519 968654
310331 277830
28759 87653
99602 296346
932964 972010
229008 414334
648719 729886
659114 298106
207620 532713
196413 557089
984162 439353
232544 332745
145950 243413
811143 75427
155152 944357
994032 95669
29628 913905
248446 238896
189092 551954
609612 548
669367 599833
363254 863343
448223 844722
901089 38899
734883 209574
823180 151534
559889 248566
182919 866113
522883 501716
575550 878348
713605 541742
957379 39937
817446 10618
260216 414844
582682 986952
737243 484971
559421 158650
429690 171476
548134 43037
452128 990575
648292 66517
939273 331847
841285 484038
528868 481885
66462 5712
505046 422752
862552 928319
587567 359241
463209 805313
724516 644982
47309 238776
499261 846559
990618 417181
410815 76696
412985 861516
307575 714187
799499 744070
738828 177642
507112 262443
673562 52495
462909 632019
274787 265985
217595 373842
53870 44550
177496 182294
80365 186006
412679 249617
390761 802387
410110 798972
863181 218567
562803 953490
796955 826403
749962 275768
502337 771864
271314 638398
679871 461700
619066 653744
719146 938535
909029 832529
853187 889636
161274 353328
475317 777539
860243 132303
967453 39704
955878 389903
216077 177285
504152 564734
497507 311524
449055 84324
470371 478656
733514 532567
438990 982670
788684 129700
59217 659717
46555 330313
290044 571583
925175 265684
392300 475467
735304 284751
908890 724034
205962 665117
314266 801914
172382 266317
620545 274356
32252 7505
814028 341930
511782 731554
218538 881692
32661 85677
74213 547284
252882 535364
122099 679800
295076 6818
422142 264070
196429 952866
380104 802576
853000 533258
370536 276430
413096 893432
696087 270751
695296 16800
342920 205794
231502 501242
449995 428738
725413 742304
745581 478100
591344 87429
930594 351527
443364 121755
804272 462643
449599 733028
539622 630124
887847 376292
959248 427541
983968 166285
656734 524758
917161 156500
654085 998807
569941 753165
120143 130866
707365 936257
210104 237166
719431 330920
519744 894743
940084 669572
994439 535425
504707 825359
648058 125540
132043 954034
444400 491686
538675 511215
645560 392781
844398 581968
302865 934833
597205 418607
406492 162768
209089 186397
859922 695037
338648 969037
783464 31990
49249 681200
444607 687871
919051 481303
