124320 34198 354
980434 708059 525
743759 162233 509
134046 765158 509
655945 511512 509
390743 149077 443
812928 281853 509
143817 640638 509
758581 866527 525
283192 693656 509
37965 766765 509
918450 818963 525
127493 124919 331
164684 510653 449
373402 474865 449
909216 300313 525
922037 273001 525
789985 422421 509
87890 431941 449
705817 471626 509
850938 572531 525
285394 15971 443
487818 281075 449
760283 74194 509
382908 685050 509
590327 209743 470
915394 372939 525
233039 232456 293
734502 880489 525
153827 419418 449
881448 295433 525
34624 753461 509
788953 502843 509
841635 70984 525
650136 52127 509
521499 622876 452
458148 326370 449
939948 66307 525
80262 120061 354
549878 497189 470
135298 535296 470
759844 302448 509
269353 950151 525
848777 676527 525
558257 841355 525
645883 885232 525
955139 228304 525
932668 503104 525
585480 370707 470
726524 324467 509
523333 98739 470
575495 884592 525
736224 434032 509
625818 664871 509
830514 342253 509
309563 857225 525
315884 627824 509
581531 422248 470
36362 421622 449
276256 879340 525
260723 545752 470
472503 967628 525
185247 546074 470
280690 299333 389
511112 634094 509
927455 742434 525
677812 89309 509
108875 804127 509
768078 978751 525
820205 586771 509
919475 744032 525
408436 961729 525
540680 924633 525
261316 979336 525
831724 396151 509
127447 857374 525
144538 519992 470
622817 998610 525
715134 513283 509
974056 932999 507
213325 621605 470
480810 457856 444
825003 794844 468
329164 225687 443
59533 805087 509
290304 865260 525
915867 30660 525
409030 406318 343
979648 568748 525
586496 462457 470
42287 657962 509
564809 371584 470
59946 491558 449
769146 766311 468
397130 782138 509
591210 653706 509
954287 29780 525
231080 90896 443
273795 38900 443
258745 431860 449
299396 166982 443
901720 548640 525
407754 488342 449
479028 825838 509
956264 540939 525
723849 454409 509
610143 941221 525
973881 706520 525
765023 674837 504
95832 471427 449
392542 110635 443
300361 326581 384
258222 973707 525
860351 217424 525
356455 253745 441
727523 509654 509
426595 384778 449
599816 328998 470
527640 718606 509
504292 957216 525
731091 288991 509
50901 371792 443
861403 551589 525
722096 603044 509
312301 759999 509
689652 239312 509
947039 329812 525
296752 227231 443
526410 79856 470
261297 643687 509
810750 955471 525
920946 441072 525
372476 321665 441
449351 792906 509
976726 678483 525
898196 773253 525
67337 417789 449
19589 979634 525
668121 563653 509
437239 454467 400
132625 425138 449
103265 323206 443
174834 57936 383
152381 794038 509
904550 754535 525
155886 956890 525
736631 242571 509
61716 841042 525
120273 438331 449
519747 953611 525
831266 396777 509
67284 79634 351
845389 568913 525
743018 771092 468
37643 961990 525
820775 148059 509
901489 900586 401
911100 5596 525
756566 966027 525
599651 680830 509
980901 418153 525
430954 595976 470
283437 537962 470
147168 28053 375
368366 987556 525
437514 490391 444
632119 835240 504
546828 383592 470
481041 568085 470
549027 687736 509
266249 353805 441
887056 470923 525
302751 185088 443
492652 576226 470
73418 322349 443
201623 137299 383
12283 574159 470
398506 185388 443
876729 343219 525
914493 716568 525
521957 342138 470
673937 589607 509
470764 150780 449
822705 882419 525
854471 881786 432
806335 106554 509
313776 144290 443
958668 518842 525
25192 517254 470
478000 462934 413
81661 67231 351
78135 311788 443
539371 89917 470
810732 400225 509
701164 891101 525
117144 543541 470
529877 87676 470
340436 361593 441
281485 404787 441
74620 492360 449
743485 136726 509
502068 164571 449
43231 564862 470
495419 360882 449
881611 657582 525
5150 676885 509
715152 304486 509
612435 107801 470
858663 460406 525
243004 890936 525
203442 827254 509
911174 955023 507
132530 736539 509
48386 617220 470
70136 42958 340
430589 520694 470
252661 801635 509
63968 867808 525
579984 324201 470
956789 110491 525
980431 502460 525
948915 658238 525
147624 352772 443
42590 333211 443
613891 407533 470
664541 188406 509
102731 191523 383
970497 403132 525
893070 384130 525
998828 679528 525
14980 824236 509
209496 455347 449
526824 755625 509
516269 422795 470
974408 894416 507
31106 952816 525
407037 320392 441
691661 844746 525
13203 472560 449
888034 742006 525
128437 128109 331
662562 306259 509
858345 634993 525
771620 483654 509
515339 430344 470
492690 676391 509
328719 413210 449
330036 700036 509
820788 658145 504
276185 998505 525
677633 98619 509
544633 19005 470
241589 599607 470
870562 442743 525
546150 582069 452
2897 127904 354
607379 795108 509
901962 989625 507
371484 877376 525
299988 977981 525
767914 776598 437
32667 105229 351
738348 130068 509
845251 378358 525
234100 967277 525
730721 23777 509
560992 350592 470
67348 931811 525
656737 548546 509
652926 374145 509
97187 457436 449
843348 877815 432
40383 562003 470
